"_id","uid","bot","platform","firstTime","created","updated","__v","userAgent.browser","userAgent.os","userAgent.platform","userAgent.source","userAgent.device","payload","userId","userToken","name","utm_source","utm_campaign","utm_medium","utm_term","utm_content"
"5dd552c1bfdb590010df478f","134157737988888843973458","x1574261437050","yellowmessenger",true,"2019-11-20T14:50:41.073Z","2019-11-21T10:35:22.757Z",0,"Firefox","macOS Mojave","Apple Mac","Mozilla/5.0 (Macintosh; Intel Mac OS X 10.14; rv:70.0) Gecko/20100101 Firefox/70.0","Desktop","{}",,,,,,,,
"5dd55e0209828800106413f5","17262425443610760724546","x1574261437050","yellowmessenger",true,"2019-11-20T15:38:42.385Z","2019-11-21T06:26:13.885Z",0,"Chrome","macOS Mojave","Apple Mac","Mozilla/5.0 (Macintosh; Intel Mac OS X 10_14_6) AppleWebKit/537.36 (KHTML, like Gecko) Chrome/78.0.3904.97 Safari/537.36","Desktop","{}",,,,,,,,
"5dd61f840982880010641462","16216205847324745527970","x1574261437050","yellowmessenger",true,"2019-11-21T05:24:20.279Z","2019-11-21T09:17:05.473Z",0,"Chrome","macOS Mojave","Apple Mac","Mozilla/5.0 (Macintosh; Intel Mac OS X 10_14_6) AppleWebKit/537.36 (KHTML, like Gecko) Chrome/78.0.3904.97 Safari/537.36","Desktop","{}",,,,,,,,
"5dd62ff109828800106414b0","1787043484755169133411490","x1574261437050","yellowmessenger",true,"2019-11-21T06:34:25.234Z","2019-11-21T06:34:25.234Z",0,"Firefox","macOS Mojave","Apple Mac","Mozilla/5.0 (Macintosh; Intel Mac OS X 10.14; rv:70.0) Gecko/20100101 Firefox/70.0","Desktop",,,,,,,,,
"5dd63a8b09828800106414f1","331090007782700452714914","x1574261437050","yellowmessenger",true,"2019-11-21T07:19:39.074Z","2019-11-22T06:58:42.574Z",0,"Chrome","macOS Mojave","Apple Mac","Mozilla/5.0 (Macintosh; Intel Mac OS X 10_14_6) AppleWebKit/537.36 (KHTML, like Gecko) Chrome/78.0.3904.97 Safari/537.36","Desktop","{}",,,,,,,,